IPACT_USER_ID,FIRST_NAME,LAST_NAME,NT_LOGIN,UP1_MANAGER,EMAIL_ADDRESS,ACCOUNT_CREATED_DATE,DAYS_INACTIVE_LAST,IPACT_AD_RECORD_STATUS,Disable
222,Suma,Koshy,sumakoshly1,johns1,sumakoshy1@nbnco.com.au,5/16/2016 12:00,120,CURRENT,YES
777,kumar,kuresi,kumarkuresi,johns1,kumar@nbnco.com,5/16/2016 12:00,193,CURRENT,NO
456,Sam,Koshy,samkoshy,johns1,samkoshy@nbnco.com.au,5/16/2016 12:00,200,CURRENT,NO
789,Sam,Koshy,samkoshy,johns1,samkoshy@nbnco.com.au,5/16/2016 12:00,200,CURRENT,YES
