IPACT_USER_ID,ACCOUNT_CREATED_DATE,DAYS_INACTIVE_LAST,Disable,EMAIL_ADDRESS,FIRST_NAME,IPACT_AD_RECORD_STATUS,LAST_NAME,NT_LOGIN,UP1_MANAGER
753.0,5/16/2016 12:00,200,YES,samkoshy@nbnco.com.au,Sam,CURRENT,Koshy,samkoshy,vinay
159.0,5/16/2016 12:00,200,YES,samkoshy@nbnco.com.au,Sam,CURRENT,Koshy,samkoshy,vinay
111.0,3/13/2013 3:03,94,YES,ashlyvarghese@nbnco.com.au,Ashly,CURRENT,Varghese,ashlyvarghese,jainabraham
999.0,5/16/2016 12:00,200,YES,samkoshy@nbnco.com.au,Sam,CURRENT,Koshy,samkoshy,jainabraham
888.0,5/16/2016 12:00,200,YES,samkoshy@nbnco.com.au,Sam,CURRENT,Koshy,samkoshy,jamesmathew
963.0,5/16/2016 12:00,200,YES,samkoshy@nbnco.com.au,Sam,CURRENT,Koshy,samkoshy,jamesmathew
222.0,5/16/2016 12:00,120,YES,sumakoshy1@nbnco.com.au,Suma,CURRENT,Koshy,sumakoshly1,johns1
789.0,5/16/2016 12:00,200,YES,samkoshy@nbnco.com.au,Sam,CURRENT,Koshy,samkoshy,johns1
